@base
^void #motor_init(){
   #motor_control.direction=MOTOR_STOP;
   #motor_control.speed=0;
   #motor_pwm.timer=0;
   #motor_pwm.left_timer=255;
   #motor_pwm.right_timer=255;
   L_MOTOR_OFF;
   R_MOTOR_OFF;
   `if #TIMER == 1
      EA    = 0   ;
      TMOD &= 0x0f;
      TMOD |= 0x02;
      TH0   = 220 ;
      TL0   = 220 ;
      TR0   = 1   ;
      ET0   = 1   ;
      EA    = 1   ;
      `define #TIMER_INT 1
   `else
      EA    = 0   ;
      TMOD &= 0xf0;
      TMOD |= 0x20;
      TH1   = 220 ;
      TL1   = 220 ;
      TR1   = 1   ;
      ET1   = 1   ;
      EA    = 1   ;
      `define #TIMER_INT 3
   `endif
}

^void #motor_control_update(){
   L_MOTOR_OFF;
   R_MOTOR_OFF;
   switch(#motor_control.direction){
      case 0:
      break;
      case 1:
         L_MOTOR_HEAD;
         R_MOTOR_HEAD;
         L_MOTOR_ON;
         R_MOTOR_ON;
      break;
      case 2:
         L_MOTOR_BACK;
         R_MOTOR_BACK;
         L_MOTOR_ON;
         R_MOTOR_ON;
      break;
      case 3:
         L_MOTOR_BACK;
         R_MOTOR_HEAD;
         L_MOTOR_ON;
         R_MOTOR_ON;
      break;
      case 4:
         L_MOTOR_HEAD;
         R_MOTOR_BACK;
         L_MOTOR_ON;
         R_MOTOR_ON;
      break;
   }
   #motor_pwm.left_timer = #motor_pwm.right_timer = 255-#motor_control.speed;
}
void #MOTOR_TIMER_0() interrupt #TIMER_INT
{
   #motor_pwm.timer++;
   if(#motor_pwm.left_timer == #motor_pwm.timer){
      L_MOTOR_ON;
   }
   if(#motor_pwm.right_timer == #motor_pwm.timer){
      R_MOTOR_ON;
   }
   if(#motor_pwm.timer==255){
      L_MOTOR_OFF;
      R_MOTOR_OFF;
   }
}
