@base
^unsigned long #ultrasonic_count(void)
{
   `if #TIMER == 1
      #time=TH0*256+TL0;
      TH0=0;
      TL0=0;
   `else
      #time=TH1*256+TL1;
      TH1=0;
      TL1=0;
   `endif

   #count=(float)(#time*1.085)*0.17;
   if((#count>=7000)||#flag==1)
   {
      #flag=0;
      return 0;
   }
   else
   {
      return #count%10000;
   }
}
^void #init()
{
   #RX=0;
   `if #TIMER == 1
      EA = 0;
      TMOD &= 0xf0;
      TMOD |= 0x01;
      PT0=1;
      TH0=0;
      TL0=0;
      ET0=1;
      EA=1;
      `define #TIMER_INT 1
   `else
      EA = 0;
      TMOD &= 0x0f;
      TMOD |= 0x10;
      PT1=1;
      TH1=0;
      TL1=0;
      ET1=1;
      EA=1;
      `define #TIMER_INT 3
   `endif      
}
^void #Get_Length()
{
   #TX=1;
   delay_10_us();
   #TX=0;
   `if #TIMER == 1
      ET1=0;
      while(!#RX);
      TR0=1;
      while(#RX);
      TR0=0;
      ET1=1;
   `else
      ET0=0;
      while(!#RX);
      TR1=1;
      while(#RX);
      TR1=0;
      ET0=1;
   `endif
   #ultrasonicData((unsigned int)#ultrasonic_count()%10000);
}
void #Timer_0() interrupt #TIMER_INT
{
   #flag=1;
}
