@include
   reg52.h
   stdio.h
@define
   #SIGNEL_BUF_SIZE
@map
@code
   char #signel_sending = 0x00;
   struct #signel_buf_struct {
      char dataBuf[#SIGNEL_BUF_SIZE];
      unsigned char count;
      unsigned char head;
      unsigned char tail;
   };
   struct #signel_buf_struct #signel_buf;
   /***
    * SINGEL WILL USE INT_IO AND TIMER 2
    * 
    *  char _getkey (void);
    *  char getchar (void);
    *  char ungetchar (char);
    *  char putchar (char);
    *  int printf   (const char *, ...);
    *  int sprintf  (char *, const char *, ...);
    *  int vprintf  (const char *, char *);
    *  int vsprintf (char *, const char *, char *);
    *  char *gets (char *, int n);
    *  int scanf (const char *, ...);
    *  int sscanf (char *, const char *, ...);
    *  int puts (const char *);
    * 
    * 
    * USE 11.0592 Crystal AND 9600 Baud
    * 
   ***/
