@include
   reg52.h
@define
   #DATA
   #LED_NUM_1
   #LED_NUM_2
   #LED_NUM_3
   #LED_NUM_4
@map
@code
   /***
    * #LED_NUM WILL USE TIMER INTERRUPT
    * PLEASE USE LED_NUM_LOOP IF YOU WANT USE TIMER
   ***/
   sbit #SELECT_1=#LED_NUM_1;
   sbit #SELECT_2=#LED_NUM_2;
   sbit #SELECT_3=#LED_NUM_3;
   sbit #SELECT_4=#LED_NUM_4;
   unsigned char #LED_NUM_TAB[10]={0xC0,0xF9,0xA4,0xB0,0x99,0x92,0x82,0xF8,0x80,0x90};
   unsigned char #LED_SHOW_TAB[4]={0x00,0x00,0x00,0x00};
