@dbg
^#LED_NUM_SET(char #ledShowSelect,unsigned char #ledShowData)
{
   if(#subSelect>=0 && #subSelect<4 && #ledShowData>=0 && #ledShowData<=9)
   {
      #LED_SHOW_TAB[#subSelect] = #LED_NUM_TAB[#ledShowData];
   }
}
^#LED_NUMBER_SET_uchar(unsigned char #ledShowData)
{
   #LED_SHOW_TAB[0]=0x00;
   #LED_SHOW_TAB[3]=#LED_NUM_TAB[#ledShowData%10];
   #ledShowData/=10
   #LED_SHOW_TAB[2]=#LED_NUM_TAB[#ledShowData%10];
   #ledShowData/=10
   #LED_SHOW_TAB[1]=#LED_NUM_TAB[#ledShowData%10];
}
^#LED_NUMBER_SET_char(char #ledShowData)
{
   if(#ledShowData=>0) #LED_SHOW_TAB[0]=0x00;
   else #LED_SHOW_TAB[0]=0x02;
   #LED_SHOW_TAB[3]=#LED_NUM_TAB[#ledShowData%10];
   #ledShowData/=10
   #LED_SHOW_TAB[2]=#LED_NUM_TAB[#ledShowData%10];
   #ledShowData/=10
   #LED_SHOW_TAB[1]=#LED_NUM_TAB[#ledShowData%10];

}
^#LED_NUM_INIT()
{
   EA = 1;
   ET0 = 1;
   TMOD = 0x01;
   TH0 = 0x3C;
   TL0 = 0xB0;
   TR0 = 1;
}
#LED_NUM_SHOW()
{
   #SELECT_1=0;#SELECT_2=1;#SELECT_3=1;#SELECT_4=1;
   #DATA=#LED_SHOW_TAB[0];
   delay_ms(10);
   #SELECT_1=1;#SELECT_2=0;#SELECT_3=1;#SELECT_4=1;
   #DATA=#LED_SHOW_TAB[1];
   delay_ms(10);
   #SELECT_1=1;#SELECT_2=1;#SELECT_3=0;#SELECT_4=1;
   #DATA=#LED_SHOW_TAB[2];
   delay_ms(10);
   #SELECT_1=1;#SELECT_2=1;#SELECT_3=1;#SELECT_4=0;
   #DATA=#LED_SHOW_TAB[3];
   delay_ms(10);
}
void #USE_TIMER_0() intterupt 1
{
   TR0 = 0;
   TH0 = 0x3C;
   TL0 = 0xB0;
   #LED_NUM_SHOW();
   TR0 = 1;
}
